bal,rate,maturity,rating,security,orig-bal,collected
19344,0.04,3,aa,senior-secured,19344,0
598,0.05499999999999999,2,bb,senior-secured,598,0
999,0.04,2,c,senior-subordinated,999,0
11699,0.049999999999999996,3,bbb,senior-secured,11699,0
3919,0.04,2,aa,senior-unsecured,3919,0
881,0.05999999999999999,5,ccc,senior-unsecured,881,0
6180,0.05499999999999999,5,aa,senior-subordinated,6180,0
722,0.045,3,ccc,junior-subordinated,722,0
11360,0.049999999999999996,4,a,senior-secured,11360,0
358187,0.05499999999999999,5,bbb,junior-subordinated,358187,0
23665345,0.05999999999999999,3,ccc,senior-secured,23665345,0
11572,0.05499999999999999,2,aa,senior-unsecured,11572,0
3088,0.045,4,aaa,junior-subordinated,3088,0
41826,0.05999999999999999,4,aa,senior-subordinated,41826,0
54721038,0.05999999999999999,2,ccc,senior-subordinated,54721038,0
22812,0.04,4,c,senior-secured,22812,0
4008593,0.04,5,aaa,senior-secured,4008593,0
1865270,0.05499999999999999,4,ccc,junior-subordinated,1865270,0
17953,0.05999999999999999,5,a,junior-subordinated,17953,0
95621,0.04,5,aa,subordinated,95621,0
1642763,0.05999999999999999,2,bbb,senior-subordinated,1642763,0
110105412,0.05999999999999999,2,ccc,subordinated,110105412,0
263623746,0.04,5,bbb,senior-unsecured,263623746,0
94750,0.04,2,aa,subordinated,94750,0
4687,0.04,4,aa,senior-secured,4687,0
773644051,0.049999999999999996,5,c,senior-secured,773644051,0
27891620,0.049999999999999996,2,bb,senior-secured,27891620,0
41671.0,0.049999999999999996,2,aaa,subordinated,41671.0,0
2434.168975830078,0.05499999999999999,3,a,junior-subordinated,2434.168975830078,0
3576778,0.045,4,ccc,senior-unsecured,3576778,0
660502,0.045,3,b,senior-unsecured,660502,0
14262.60546875,0.049999999999999996,2,a,senior-secured,14262.60546875,0
13436,0.049999999999999996,3,aaa,senior-subordinated,13436,0
81664.0,0.049999999999999996,3,b,senior-unsecured,81664.0,0
6546813,0.04,3,a,senior-secured,6546813,0
60480853,0.049999999999999996,5,c,senior-secured,60480853,0
3577125.8330078125,0.05499999999999999,5,ccc,senior-secured,3577125.8330078125,0
642710,0.05999999999999999,3,cc,senior-subordinated,642710,0
132799,0.04,5,bbb,senior-secured,132799,0
33102,0.05499999999999999,3,c,senior-secured,33102,0
1655534.171875,0.045,2,bbb,subordinated,1655534.171875,0
9747,0.04,5,aaa,senior-secured,9747,0
158418,0.049999999999999996,3,aa,subordinated,158418,0
4128141,0.045,5,cc,senior-secured,4128141,0
259157303,0.049999999999999996,5,a,senior-subordinated,259157303,0
691019441,0.04,3,b,senior-unsecured,691019441,0
29367,0.05499999999999999,5,bb,junior-subordinated,29367,0
44379,0.049999999999999996,5,aaa,senior-secured,44379,0
1536703,0.05999999999999999,3,aaa,senior-secured,1536703,0
43726550,0.049999999999999996,4,cc,junior-subordinated,43726550,0
95533,0.05499999999999999,2,b,senior-unsecured,95533,0
2399065,0.04,3,b,subordinated,2399065,0
161173250,0.05499999999999999,4,b,junior-subordinated,161173250,0
254410988,0.05499999999999999,5,aa,senior-subordinated,254410988,0
105838.0,0.04,3,cc,subordinated,105838.0,0
5858,0.045,5,aaa,senior-secured,5858,0
4035906,0.04,5,cc,subordinated,4035906,0
1102998.0,0.045,2,a,senior-secured,1102998.0,0
2821599,0.045,5,a,senior-subordinated,2821599,0
6738813,0.049999999999999996,2,aaa,senior-unsecured,6738813,0
351723260,0.05499999999999999,3,cc,senior-subordinated,351723260,0
876960584,0.045,5,aaa,senior-subordinated,876960584,0
1646051,0.05999999999999999,5,bbb,senior-secured,1646051,0
96647,0.04,5,cc,senior-secured,96647,0
1020,0.045,3,c,senior-unsecured,1020,0
234022873,0.045,3,bb,junior-subordinated,234022873,0
228235,0.049999999999999996,4,b,junior-subordinated,228235,0
517994519,0.05999999999999999,2,bb,senior-unsecured,517994519,0
5850676,0.04,3,bbb,senior-subordinated,5850676,0
214644,0.05499999999999999,5,aa,subordinated,214644,0
1438,0.049999999999999996,5,ccc,senior-unsecured,1438,0
15692,0.049999999999999996,3,bbb,senior-subordinated,15692,0
29931,0.04,4,a,junior-subordinated,29931,0
983028158,0.045,5,aa,junior-subordinated,983028158,0
75462491,0.05999999999999999,2,ccc,senior-secured,75462491,0
14085,0.049999999999999996,2,aa,senior-subordinated,14085,0
932,0.045,2,a,senior-subordinated,932,0
1171168,0.04,2,bbb,junior-subordinated,1171168,0
1768.2797196934325,0.045,3,bbb,senior-unsecured,1768.2797196934325,0
2246,0.045,3,aaa,senior-unsecured,2246,0
911,0.05499999999999999,2,b,junior-subordinated,911,0
220220128,0.045,5,bbb,subordinated,220220128,0
52703021,0.05999999999999999,3,cc,senior-subordinated,52703021,0
98163102,0.045,2,c,junior-subordinated,98163102,0
19146959,0.05999999999999999,4,a,senior-secured,19146959,0
4379,0.049999999999999996,5,ccc,senior-subordinated,4379,0
993,0.04,4,aaa,subordinated,993,0
11333,0.05999999999999999,4,cc,senior-subordinated,11333,0
6504,0.045,2,c,senior-unsecured,6504,0
1137,0.05999999999999999,4,aa,senior-subordinated,1137,0
2612600,0.04,5,ccc,senior-secured,2612600,0
1885,0.05999999999999999,5,aa,senior-subordinated,1885,0
12853,0.05499999999999999,4,c,subordinated,12853,0
15382,0.045,3,a,subordinated,15382,0
1398,0.05999999999999999,3,a,senior-unsecured,1398,0
14286,0.045,3,ccc,subordinated,14286,0
26131,0.05499999999999999,2,a,senior-subordinated,26131,0
971,0.045,5,cc,senior-subordinated,971,0
3348,0.045,3,bbb,junior-subordinated,3348,0
4061,0.049999999999999996,2,aa,senior-unsecured,4061,0
106110,0.05499999999999999,2,bb,junior-subordinated,106110,0
6164,0.045,4,c,junior-subordinated,6164,0
15895,0.05999999999999999,5,b,senior-secured,15895,0
13329,0.04,2,aaa,senior-subordinated,13329,0
3077,0.05999999999999999,2,ccc,senior-subordinated,3077,0
44657,0.045,5,aa,senior-secured,44657,0
28289,0.045,4,c,senior-secured,28289,0
228308,0.049999999999999996,4,bbb,junior-subordinated,228308,0
824,0.045,2,cc,senior-subordinated,824,0
844,0.049999999999999996,3,a,junior-subordinated,844,0
3885,0.05499999999999999,4,bbb,senior-unsecured,3885,0
981,0.05499999999999999,3,aa,senior-secured,981,0
21847,0.045,2,bbb,senior-secured,21847,0
1808023,0.05999999999999999,3,cc,subordinated,1808023,0
97140531,0.049999999999999996,2,aa,junior-subordinated,97140531,0
4032,0.05499999999999999,2,aa,senior-secured,4032,0
3708240,0.04,3,aa,senior-subordinated,3708240,0
53784589,0.045,2,cc,senior-unsecured,53784589,0
11699087,0.049999999999999996,5,c,junior-subordinated,11699087,0
396416,0.045,4,cc,senior-subordinated,396416,0
110101.28125,0.05999999999999999,5,aaa,senior-unsecured,110101.28125,0
474856150,0.045,5,bbb,junior-subordinated,474856150,0
115576737,0.04,3,cc,senior-secured,115576737,0
3072.0,0.04,3,b,senior-unsecured,3072.0,0
141131906,0.04,4,cc,subordinated,141131906,0
9.464684732426758E8,0.05999999999999999,2,bbb,senior-secured,9.464684732426758E8,0
1235,0.045,2,aaa,subordinated,1235,0
1352,0.05999999999999999,5,ccc,junior-subordinated,1352,0
123050564,0.05999999999999999,2,aaa,senior-subordinated,123050564,0
9257,0.05999999999999999,4,bb,senior-secured,9257,0
163449146,0.05999999999999999,3,ccc,junior-subordinated,163449146,0
2126576,0.05999999999999999,5,aaa,senior-unsecured,2126576,0
1171838,0.05499999999999999,5,bbb,senior-unsecured,1171838,0
23749614,0.05999999999999999,5,aa,subordinated,23749614,0
30680.0,0.05999999999999999,4,ccc,senior-secured,30680.0,0
20059.0732421875,0.05999999999999999,3,cc,junior-subordinated,20059.0732421875,0
954133100,0.05499999999999999,5,aaa,subordinated,954133100,0
258914935,0.04,5,a,senior-unsecured,258914935,0
729,0.05999999999999999,2,a,senior-unsecured,729,0
5753,0.05999999999999999,4,bbb,senior-unsecured,5753,0
887387,0.04,2,ccc,junior-subordinated,887387,0
5.0331648E7,0.05999999999999999,5,bbb,senior-secured,5.0331648E7,0
82379,0.05499999999999999,4,c,junior-subordinated,82379,0
36082809,0.049999999999999996,5,b,junior-subordinated,36082809,0
7626710,0.049999999999999996,4,bb,senior-unsecured,7626710,0
240700,0.049999999999999996,5,c,subordinated,240700,0
4548614,0.05499999999999999,2,ccc,junior-subordinated,4548614,0
714471.5658471435,0.05499999999999999,3,aaa,junior-subordinated,714471.5658471435,0
17320504,0.05999999999999999,3,c,subordinated,17320504,0
202496.0,0.045,5,b,junior-subordinated,202496.0,0
180451782,0.05499999999999999,3,c,senior-secured,180451782,0
585,0.05999999999999999,5,cc,senior-subordinated,585,0
37781222,0.04,2,bbb,senior-unsecured,37781222,0
84849,0.05999999999999999,2,aa,senior-subordinated,84849,0
4864635,0.04,3,aa,subordinated,4864635,0
1647,0.05999999999999999,5,aa,senior-unsecured,1647,0
1.4314032E7,0.05499999999999999,3,a,senior-subordinated,1.4314032E7,0
28697658,0.04,5,aa,junior-subordinated,28697658,0
5941331,0.04,4,bbb,junior-subordinated,5941331,0
898267336,0.045,3,c,senior-secured,898267336,0
4813,0.04,5,c,subordinated,4813,0
101309886,0.05999999999999999,5,c,senior-unsecured,101309886,0
45594,0.049999999999999996,2,ccc,senior-subordinated,45594,0
527,0.05999999999999999,5,c,junior-subordinated,527,0
5693,0.05999999999999999,3,cc,senior-unsecured,5693,0
11818,0.045,5,a,senior-secured,11818,0
8135376,0.05999999999999999,3,a,senior-subordinated,8135376,0
3622796,0.049999999999999996,2,aaa,senior-unsecured,3622796,0
58640121,0.05999999999999999,3,aa,senior-secured,58640121,0
3342872,0.05499999999999999,3,aaa,senior-secured,3342872,0
19933,0.049999999999999996,5,aa,senior-subordinated,19933,0
2138182,0.05499999999999999,3,aa,senior-subordinated,2138182,0
196807138,0.049999999999999996,3,b,subordinated,196807138,0
4469,0.05499999999999999,3,bbb,senior-unsecured,4469,0
77291277,0.05499999999999999,5,a,senior-subordinated,77291277,0
20028,0.05999999999999999,5,aaa,senior-secured,20028,0
73500,0.05499999999999999,2,bbb,senior-unsecured,73500,0
7789343,0.049999999999999996,4,b,senior-subordinated,7789343,0
936771,0.049999999999999996,4,ccc,subordinated,936771,0
4152195,0.05999999999999999,4,aaa,subordinated,4152195,0
510,0.045,2,bb,senior-subordinated,510,0
56165602,0.04,4,ccc,senior-subordinated,56165602,0
206544406,0.045,4,b,senior-unsecured,206544406,0
165573,0.04,4,bbb,senior-secured,165573,0
188936793,0.049999999999999996,5,cc,subordinated,188936793,0
103197,0.05499999999999999,2,cc,senior-subordinated,103197,0
760,0.049999999999999996,5,aaa,junior-subordinated,760,0
41620,0.05499999999999999,4,b,senior-subordinated,41620,0
3507,0.04,3,c,senior-secured,3507,0
14960,0.05999999999999999,3,aaa,subordinated,14960,0
224568,0.045,2,c,senior-subordinated,224568,0
1154,0.045,3,aa,junior-subordinated,1154,0
75112,0.05999999999999999,5,ccc,senior-unsecured,75112,0
182339,0.05999999999999999,3,a,junior-subordinated,182339,0
238938,0.05999999999999999,5,bbb,senior-unsecured,238938,0
1859,0.045,2,bbb,senior-secured,1859,0
7552,0.045,4,b,senior-subordinated,7552,0
10646,0.05999999999999999,4,aa,junior-subordinated,10646,0
110288,0.045,5,bbb,senior-unsecured,110288,0
5053,0.04,3,cc,senior-subordinated,5053,0
10249,0.05999999999999999,5,c,senior-subordinated,10249,0
408815,0.045,3,aaa,junior-subordinated,408815,0
1134,0.05999999999999999,3,bb,junior-subordinated,1134,0
148550,0.04,2,cc,senior-secured,148550,0
8313024,0.04,5,c,subordinated,8313024,0
121890,0.04,3,cc,senior-secured,121890,0
432523,0.05499999999999999,5,aa,senior-subordinated,432523,0
813506,0.04,2,a,senior-subordinated,813506,0
156658,0.045,4,a,senior-secured,156658,0
229518,0.04,5,cc,senior-unsecured,229518,0
19700.977416992188,0.05499999999999999,4,aaa,senior-subordinated,19700.977416992188,0
6903849,0.05999999999999999,5,ccc,junior-subordinated,6903849,0
1882.1593017578125,0.05999999999999999,2,bb,junior-subordinated,1882.1593017578125,0
1417,0.05999999999999999,4,aa,junior-subordinated,1417,0
1065,0.05499999999999999,5,a,senior-subordinated,1065,0
239851357,0.04,5,ccc,senior-subordinated,239851357,0
9051,0.05499999999999999,2,aaa,senior-subordinated,9051,0
4572,0.049999999999999996,3,c,senior-secured,4572,0
38912.0,0.049999999999999996,5,b,senior-secured,38912.0,0
10556547,0.049999999999999996,3,ccc,subordinated,10556547,0
84492317,0.05999999999999999,5,b,junior-subordinated,84492317,0
5732,0.04,4,b,senior-secured,5732,0
2734886.0,0.05999999999999999,2,aaa,subordinated,2734886.0,0
213165133,0.04,2,aaa,senior-secured,213165133,0
17238.632719384506,0.045,2,a,senior-subordinated,17238.632719384506,0
1034293.4375,0.04,2,c,junior-subordinated,1034293.4375,0
927716116,0.04,4,aa,subordinated,927716116,0
354894758,0.04,2,aaa,senior-secured,354894758,0
29748,0.05999999999999999,5,cc,junior-subordinated,29748,0
742,0.04,3,cc,subordinated,742,0
1599.740522807464,0.045,3,aa,senior-subordinated,1599.740522807464,0
2.923820759375E7,0.05999999999999999,3,bb,senior-secured,2.923820759375E7,0
20348770,0.05499999999999999,5,bb,subordinated,20348770,0
496618795,0.045,3,ccc,senior-subordinated,496618795,0
346922,0.05999999999999999,5,bbb,senior-unsecured,346922,0
8169.830501794815,0.05499999999999999,5,aa,senior-secured,8169.830501794815,0
443865,0.05999999999999999,3,ccc,subordinated,443865,0
742650,0.05999999999999999,2,bbb,subordinated,742650,0
2708.6188936904073,0.05499999999999999,4,cc,senior-secured,2708.6188936904073,0
6303043,0.045,4,aa,junior-subordinated,6303043,0
693238,0.045,2,a,senior-subordinated,693238,0
19744065,0.049999999999999996,5,aaa,senior-unsecured,19744065,0
13403,0.05999999999999999,2,aa,senior-subordinated,13403,0
9.86382336E8,0.05499999999999999,5,bb,subordinated,9.86382336E8,0
3829016,0.05999999999999999,5,ccc,subordinated,3829016,0
301984,0.045,4,bbb,senior-secured,301984,0
8313557,0.05499999999999999,3,c,senior-unsecured,8313557,0
6210,0.05499999999999999,5,bb,senior-subordinated,6210,0
280086576,0.049999999999999996,2,b,senior-secured,280086576,0
1315270,0.04,3,bb,senior-unsecured,1315270,0
646,0.05999999999999999,4,bb,junior-subordinated,646,0
518778,0.045,5,bb,senior-secured,518778,0
1.4128988957407713E7,0.049999999999999996,4,ccc,junior-subordinated,1.4128988957407713E7,0
2921,0.049999999999999996,5,b,senior-unsecured,2921,0
16692468,0.04,2,bbb,subordinated,16692468,0
53585146,0.049999999999999996,2,b,senior-secured,53585146,0
132107,0.05499999999999999,4,c,senior-unsecured,132107,0
951416,0.049999999999999996,5,b,senior-unsecured,951416,0
3563,0.05999999999999999,3,a,senior-secured,3563,0
5683926,0.05499999999999999,4,cc,subordinated,5683926,0
137798055,0.045,3,ccc,subordinated,137798055,0
9798,0.045,5,cc,senior-unsecured,9798,0
6274,0.049999999999999996,4,bbb,senior-secured,6274,0
16375,0.049999999999999996,5,b,senior-unsecured,16375,0
306571984,0.05499999999999999,3,cc,subordinated,306571984,0
3.473408E7,0.045,3,cc,junior-subordinated,3.473408E7,0
1117,0.05999999999999999,3,cc,senior-unsecured,1117,0
1031319,0.05999999999999999,4,cc,senior-unsecured,1031319,0
140372423,0.05499999999999999,2,cc,subordinated,140372423,0
3829,0.05999999999999999,2,cc,senior-unsecured,3829,0
169844,0.05999999999999999,5,cc,senior-unsecured,169844,0
174047128,0.049999999999999996,4,a,senior-subordinated,174047128,0
66045057,0.05499999999999999,5,aaa,senior-subordinated,66045057,0
24077,0.05999999999999999,2,b,senior-secured,24077,0
5959494,0.05999999999999999,2,a,senior-subordinated,5959494,0
4090,0.049999999999999996,5,c,subordinated,4090,0
7822,0.04,5,bb,junior-subordinated,7822,0
64353,0.045,2,aa,junior-subordinated,64353,0
2629,0.04,2,aa,senior-unsecured,2629,0
4661,0.04,2,c,senior-subordinated,4661,0
3631,0.045,4,bbb,senior-secured,3631,0
118425,0.049999999999999996,2,bbb,senior-unsecured,118425,0
813684,0.04,4,c,senior-secured,813684,0
6343,0.04,3,aaa,junior-subordinated,6343,0
1919,0.045,2,cc,subordinated,1919,0
25352,0.05499999999999999,5,cc,senior-subordinated,25352,0
2065243,0.05999999999999999,5,a,senior-unsecured,2065243,0
8496557,0.04,2,c,junior-subordinated,8496557,0
246997,0.045,5,ccc,junior-subordinated,246997,0
15556,0.05499999999999999,4,cc,senior-subordinated,15556,0
6581,0.04,2,c,junior-subordinated,6581,0
44108,0.045,4,c,subordinated,44108,0
2039864,0.049999999999999996,2,aa,senior-unsecured,2039864,0
516,0.045,3,cc,junior-subordinated,516,0
61755,0.045,2,c,senior-secured,61755,0
768,0.05999999999999999,5,b,senior-subordinated,768,0
13567,0.045,5,a,senior-secured,13567,0
79027,0.045,3,cc,senior-unsecured,79027,0
7507,0.05499999999999999,5,aa,junior-subordinated,7507,0
863099,0.045,3,c,junior-subordinated,863099,0
906269,0.05999999999999999,3,a,senior-subordinated,906269,0
2230,0.05999999999999999,2,bbb,senior-subordinated,2230,0
1986,0.05499999999999999,4,bb,subordinated,1986,0
534385468,0.05999999999999999,3,b,subordinated,534385468,0
780,0.045,4,b,senior-unsecured,780,0
1165,0.049999999999999996,4,bb,senior-secured,1165,0
901065503,0.05999999999999999,3,ccc,senior-subordinated,901065503,0
196811,0.05499999999999999,2,aaa,subordinated,196811,0
509.66015625,0.049999999999999996,3,cc,junior-subordinated,509.66015625,0
1908,0.049999999999999996,4,a,senior-secured,1908,0
368748.5,0.049999999999999996,2,bbb,junior-subordinated,368748.5,0
49551041,0.05499999999999999,5,bbb,junior-subordinated,49551041,0
9.9827712E8,0.05499999999999999,3,cc,senior-unsecured,9.9827712E8,0
418171,0.05499999999999999,3,aa,senior-subordinated,418171,0
165160,0.05999999999999999,3,c,senior-secured,165160,0
5451897.0,0.04,5,c,senior-unsecured,5451897.0,0
37092696,0.05499999999999999,2,bb,senior-unsecured,37092696,0
101560,0.049999999999999996,2,aa,senior-subordinated,101560,0
220396,0.049999999999999996,2,a,senior-unsecured,220396,0
23401.63507080078,0.04,4,c,senior-subordinated,23401.63507080078,0
10588861,0.04,3,cc,junior-subordinated,10588861,0
1335,0.045,5,c,senior-subordinated,1335,0
11873.5379535323,0.049999999999999996,5,a,senior-subordinated,11873.5379535323,0
3401,0.04,3,bbb,senior-subordinated,3401,0
6135.4375,0.04,4,aaa,senior-subordinated,6135.4375,0
42790659,0.05499999999999999,4,aa,senior-secured,42790659,0
159053,0.04,2,b,senior-secured,159053,0
5943158,0.049999999999999996,5,bb,subordinated,5943158,0
778037.7446899414,0.04,4,ccc,senior-secured,778037.7446899414,0
47652011,0.045,3,bbb,senior-subordinated,47652011,0
291705,0.04,2,bbb,senior-unsecured,291705,0
3275,0.04,2,a,junior-subordinated,3275,0
12445,0.05499999999999999,4,aa,senior-unsecured,12445,0
43896.533004705794,0.04,5,bb,senior-secured,43896.533004705794,0
28596909,0.04,4,b,subordinated,28596909,0
7933536,0.05999999999999999,4,bb,subordinated,7933536,0
38551372,0.05999999999999999,2,bb,senior-secured,38551372,0
14229394,0.049999999999999996,4,aa,junior-subordinated,14229394,0
4678,0.05499999999999999,4,ccc,senior-secured,4678,0
2915206,0.05999999999999999,5,a,senior-subordinated,2915206,0
29973966,0.045,2,aaa,subordinated,29973966,0
130147149,0.049999999999999996,5,c,senior-subordinated,130147149,0
2923699,0.05999999999999999,5,c,senior-subordinated,2923699,0
217792,0.049999999999999996,4,aaa,senior-subordinated,217792,0
13456,0.05499999999999999,3,ccc,senior-secured,13456,0
2883263,0.04,5,cc,subordinated,2883263,0
3722,0.04,5,c,junior-subordinated,3722,0
123814672,0.05999999999999999,3,ccc,senior-subordinated,123814672,0
66373,0.045,2,aaa,junior-subordinated,66373,0
1151,0.05499999999999999,2,bbb,senior-unsecured,1151,0
235754,0.045,2,bb,senior-unsecured,235754,0
1319240,0.045,5,aaa,junior-subordinated,1319240,0
2490435,0.05499999999999999,3,a,senior-secured,2490435,0
7860,0.05499999999999999,5,aaa,senior-subordinated,7860,0
446637798,0.049999999999999996,5,c,junior-subordinated,446637798,0
177493,0.045,4,aa,senior-unsecured,177493,0
1756,0.049999999999999996,5,cc,senior-unsecured,1756,0
284806,0.05999999999999999,3,bb,senior-secured,284806,0
167053591,0.04,2,ccc,junior-subordinated,167053591,0
2247,0.04,5,aa,senior-unsecured,2247,0
509927186,0.049999999999999996,4,aaa,senior-secured,509927186,0
662339938,0.04,4,bbb,subordinated,662339938,0
3158,0.049999999999999996,3,aaa,senior-secured,3158,0
77469,0.049999999999999996,5,ccc,senior-unsecured,77469,0
310305097,0.05999999999999999,3,ccc,senior-secured,310305097,0
8374,0.05499999999999999,3,c,senior-unsecured,8374,0
2804,0.04,3,ccc,senior-subordinated,2804,0
906,0.05999999999999999,5,b,senior-unsecured,906,0
847,0.049999999999999996,4,c,subordinated,847,0
20018,0.045,5,aaa,senior-secured,20018,0
24006,0.045,4,a,senior-subordinated,24006,0
2881,0.05999999999999999,3,cc,senior-subordinated,2881,0
669,0.045,3,ccc,senior-subordinated,669,0
697,0.045,5,b,senior-subordinated,697,0
788,0.04,2,aa,senior-subordinated,788,0
1096,0.049999999999999996,2,b,subordinated,1096,0
926,0.05999999999999999,2,a,senior-secured,926,0
2462,0.05499999999999999,5,b,junior-subordinated,2462,0
7033,0.04,4,ccc,subordinated,7033,0
926,0.05499999999999999,4,bbb,senior-subordinated,926,0
116592,0.05499999999999999,3,aaa,senior-unsecured,116592,0
25671,0.045,3,b,senior-unsecured,25671,0
1292,0.04,5,aaa,junior-subordinated,1292,0
45553,0.05999999999999999,2,aa,senior-secured,45553,0
15598,0.049999999999999996,2,ccc,senior-secured,15598,0
716,0.045,2,aa,senior-secured,716,0
429029,0.05999999999999999,5,c,senior-subordinated,429029,0
23086,0.05499999999999999,5,a,junior-subordinated,23086,0
704,0.05999999999999999,2,bbb,senior-subordinated,704,0
6180.0,0.049999999999999996,3,aa,senior-secured,6180.0,0
11088.0,0.049999999999999996,5,cc,junior-subordinated,11088.0,0
22140665,0.045,2,b,senior-unsecured,22140665,0
6560298,0.05499999999999999,4,a,junior-subordinated,6560298,0
796016086,0.05999999999999999,2,bbb,senior-subordinated,796016086,0
31738889,0.05499999999999999,5,ccc,senior-subordinated,31738889,0
9043,0.045,5,a,senior-secured,9043,0
70611.0,0.05499999999999999,5,aa,senior-secured,70611.0,0
7864320.0,0.04,2,aaa,senior-secured,7864320.0,0
110540,0.045,5,bb,junior-subordinated,110540,0
777897837,0.049999999999999996,5,ccc,senior-subordinated,777897837,0
5.69361152E8,0.045,4,ccc,junior-subordinated,5.69361152E8,0
1331304.71875,0.049999999999999996,4,aa,senior-secured,1331304.71875,0
13391200,0.049999999999999996,4,aa,senior-secured,13391200,0
17942.5,0.04,4,cc,senior-secured,17942.5,0
18267401,0.045,4,bb,senior-subordinated,18267401,0
73104,0.04,5,c,subordinated,73104,0
3322118,0.049999999999999996,3,c,senior-secured,3322118,0
1394,0.04,5,cc,senior-subordinated,1394,0
251988,0.05999999999999999,5,c,junior-subordinated,251988,0
101191,0.05999999999999999,4,aa,senior-subordinated,101191,0
72846,0.045,5,ccc,junior-subordinated,72846,0
253526,0.049999999999999996,3,bbb,subordinated,253526,0
285709287,0.05499999999999999,2,cc,subordinated,285709287,0
1346024,0.05999999999999999,4,ccc,junior-subordinated,1346024,0
1084356,0.05499999999999999,5,ccc,senior-secured,1084356,0
103478390,0.049999999999999996,2,cc,senior-subordinated,103478390,0
1.500111232168834E8,0.05499999999999999,3,aaa,senior-unsecured,1.500111232168834E8,0
213599.71063459932,0.05499999999999999,4,aaa,senior-subordinated,213599.71063459932,0
3011179,0.049999999999999996,3,b,junior-subordinated,3011179,0
95744,0.049999999999999996,3,c,senior-subordinated,95744,0
148607,0.045,2,b,senior-secured,148607,0
2747.881191253662,0.049999999999999996,5,aa,junior-subordinated,2747.881191253662,0
108912,0.049999999999999996,2,bb,senior-subordinated,108912,0
13647587,0.05499999999999999,2,cc,subordinated,13647587,0
1054,0.05499999999999999,4,b,senior-subordinated,1054,0
2130848,0.045,3,cc,senior-secured,2130848,0
727935108,0.049999999999999996,2,aaa,senior-unsecured,727935108,0
76355544,0.05999999999999999,3,ccc,senior-subordinated,76355544,0
112841,0.04,4,ccc,junior-subordinated,112841,0
11140,0.05499999999999999,3,aaa,senior-secured,11140,0
10272,0.05499999999999999,2,cc,senior-subordinated,10272,0
446048989,0.04,3,bbb,subordinated,446048989,0
77818693,0.05999999999999999,3,bbb,senior-secured,77818693,0
154500113,0.04,3,cc,senior-secured,154500113,0
196997,0.05499999999999999,4,cc,junior-subordinated,196997,0
106252,0.049999999999999996,4,aaa,subordinated,106252,0
351061944,0.05499999999999999,5,cc,junior-subordinated,351061944,0
3699,0.049999999999999996,3,cc,subordinated,3699,0
2821407,0.04,3,bbb,subordinated,2821407,0
115115289,0.045,5,b,senior-secured,115115289,0
623057.5975637436,0.049999999999999996,5,ccc,senior-secured,623057.5975637436,0
51971,0.05999999999999999,4,ccc,junior-subordinated,51971,0
7865682,0.04,2,bbb,subordinated,7865682,0
2428,0.04,3,cc,subordinated,2428,0
857119,0.05999999999999999,2,aa,junior-subordinated,857119,0
307512125,0.049999999999999996,5,a,subordinated,307512125,0
65482175,0.04,2,bb,senior-secured,65482175,0
77088384,0.049999999999999996,2,c,subordinated,77088384,0
298479643,0.049999999999999996,3,aa,senior-secured,298479643,0
106876567,0.04,5,b,subordinated,106876567,0
750,0.049999999999999996,5,b,junior-subordinated,750,0
14582,0.05499999999999999,5,aa,subordinated,14582,0
756603,0.04,3,aaa,junior-subordinated,756603,0
7938,0.049999999999999996,5,ccc,senior-subordinated,7938,0
1267529,0.04,3,ccc,junior-subordinated,1267529,0
1836,0.05499999999999999,5,bbb,junior-subordinated,1836,0
1589,0.049999999999999996,5,aa,junior-subordinated,1589,0
3413,0.05499999999999999,5,bb,senior-unsecured,3413,0
2292,0.04,5,cc,senior-unsecured,2292,0
1916,0.05499999999999999,2,cc,junior-subordinated,1916,0
2842,0.05499999999999999,3,aaa,junior-subordinated,2842,0
27844,0.045,4,aaa,junior-subordinated,27844,0
10883,0.05999999999999999,5,bb,junior-subordinated,10883,0
261027,0.049999999999999996,5,c,senior-unsecured,261027,0
3656,0.049999999999999996,5,bbb,senior-unsecured,3656,0
116480,0.05499999999999999,5,ccc,senior-subordinated,116480,0
754199,0.04,4,aaa,senior-unsecured,754199,0
44558,0.04,5,aa,senior-subordinated,44558,0
20821,0.049999999999999996,4,a,subordinated,20821,0
728894,0.05999999999999999,2,b,senior-secured,728894,0
6195,0.05999999999999999,3,cc,junior-subordinated,6195,0
401767,0.045,4,a,senior-secured,401767,0
762,0.045,3,b,senior-secured,762,0
1783743,0.04,3,aa,senior-unsecured,1783743,0
2508.419737100601,0.04,4,b,senior-secured,2508.419737100601,0
170143,0.049999999999999996,4,b,senior-subordinated,170143,0
14793,0.05499999999999999,3,aa,senior-subordinated,14793,0
42713,0.05999999999999999,4,a,senior-secured,42713,0
13503,0.049999999999999996,3,ccc,junior-subordinated,13503,0
851087514,0.05499999999999999,3,c,subordinated,851087514,0
26830743,0.05999999999999999,5,aaa,senior-secured,26830743,0
8127,0.049999999999999996,5,ccc,junior-subordinated,8127,0
1994,0.04,5,bbb,subordinated,1994,0
106475.59052848816,0.045,5,bbb,subordinated,106475.59052848816,0
5127609,0.045,5,ccc,junior-subordinated,5127609,0
2496,0.045,5,b,senior-secured,2496,0
2509584,0.045,4,ccc,subordinated,2509584,0
110268,0.045,2,cc,subordinated,110268,0
3776783,0.05999999999999999,2,bbb,senior-unsecured,3776783,0
21896878,0.049999999999999996,3,cc,senior-unsecured,21896878,0
6.71604736E8,0.04,2,bb,subordinated,6.71604736E8,0
815,0.05499999999999999,2,cc,junior-subordinated,815,0
866681863,0.04,4,b,junior-subordinated,866681863,0
3310,0.05999999999999999,5,aa,senior-unsecured,3310,0
1723617,0.045,2,bbb,senior-unsecured,1723617,0
8563,0.049999999999999996,2,ccc,senior-unsecured,8563,0
5.70324992E8,0.05499999999999999,2,bbb,senior-unsecured,5.70324992E8,0
1116372,0.045,2,ccc,junior-subordinated,1116372,0
2985,0.05999999999999999,5,ccc,senior-secured,2985,0
765,0.049999999999999996,2,ccc,senior-secured,765,0
437083,0.049999999999999996,2,c,senior-secured,437083,0
856926,0.05499999999999999,2,ccc,subordinated,856926,0
272110901,0.04,3,a,junior-subordinated,272110901,0
1964427,0.05999999999999999,5,c,subordinated,1964427,0
2136647,0.05499999999999999,2,ccc,junior-subordinated,2136647,0
875,0.049999999999999996,4,ccc,senior-subordinated,875,0
651055815,0.049999999999999996,5,b,senior-unsecured,651055815,0
210085,0.05499999999999999,2,b,senior-unsecured,210085,0
6710,0.049999999999999996,5,aaa,subordinated,6710,0
885,0.045,3,bb,subordinated,885,0
517,0.05499999999999999,4,c,senior-subordinated,517,0
12752236,0.045,2,aaa,junior-subordinated,12752236,0
65557,0.04,4,aaa,junior-subordinated,65557,0
69284152,0.04,5,aa,senior-unsecured,69284152,0
688833899,0.049999999999999996,4,aa,senior-secured,688833899,0
8385,0.045,4,ccc,senior-unsecured,8385,0
171974,0.05499999999999999,3,aa,subordinated,171974,0
4112384.0,0.04,4,a,senior-secured,4112384.0,0
45634357,0.04,3,bbb,senior-unsecured,45634357,0
6880,0.045,4,ccc,senior-secured,6880,0
115737,0.04,3,aaa,senior-unsecured,115737,0
89173204,0.05999999999999999,4,bbb,subordinated,89173204,0
12657878,0.04,4,aa,senior-secured,12657878,0
29730,0.04,5,bbb,junior-subordinated,29730,0
830,0.049999999999999996,4,bb,senior-unsecured,830,0
258883969,0.049999999999999996,4,aaa,senior-unsecured,258883969,0
1975.9629429467022,0.049999999999999996,2,c,senior-subordinated,1975.9629429467022,0
24082,0.04,3,a,senior-secured,24082,0
15206,0.04,3,b,senior-unsecured,15206,0
996869211,0.05499999999999999,3,bb,senior-unsecured,996869211,0
237913,0.049999999999999996,2,bb,subordinated,237913,0
120598085,0.05499999999999999,3,bbb,senior-secured,120598085,0
18690672,0.05499999999999999,2,aa,subordinated,18690672,0
803,0.045,3,bb,junior-subordinated,803,0
3425709,0.045,2,aa,subordinated,3425709,0
176148821,0.04,4,bb,senior-unsecured,176148821,0
23055141,0.045,5,bbb,senior-unsecured,23055141,0
491278094,0.05499999999999999,4,aaa,subordinated,491278094,0
9115996,0.045,4,a,senior-secured,9115996,0
173357,0.05499999999999999,3,aaa,senior-subordinated,173357,0
475928410,0.05999999999999999,5,bb,subordinated,475928410,0
854,0.04,4,b,senior-subordinated,854,0
130187637,0.05499999999999999,4,b,senior-secured,130187637,0
1534404,0.04,4,a,senior-subordinated,1534404,0
1314,0.05999999999999999,4,b,junior-subordinated,1314,0
689,0.049999999999999996,5,cc,senior-secured,689,0
1738,0.05499999999999999,3,aa,subordinated,1738,0
1136,0.05999999999999999,3,aa,subordinated,1136,0
1228,0.04,4,bbb,subordinated,1228,0
32537,0.05999999999999999,4,c,senior-secured,32537,0
926,0.05999999999999999,2,b,senior-unsecured,926,0
79359,0.05999999999999999,5,cc,senior-subordinated,79359,0
764,0.04,4,c,junior-subordinated,764,0
949,0.05999999999999999,4,a,senior-unsecured,949,0
13068,0.04,4,c,junior-subordinated,13068,0
1668,0.049999999999999996,3,ccc,senior-subordinated,1668,0
27937,0.05499999999999999,5,c,junior-subordinated,27937,0
1230,0.05999999999999999,4,bb,junior-subordinated,1230,0
3136,0.05499999999999999,3,a,subordinated,3136,0
42180,0.049999999999999996,3,ccc,junior-subordinated,42180,0
49197,0.04,2,b,subordinated,49197,0
608218,0.049999999999999996,5,c,subordinated,608218,0
510.75,0.05999999999999999,3,b,senior-unsecured,510.75,0
1085,0.049999999999999996,2,a,junior-subordinated,1085,0
614024,0.045,4,aaa,subordinated,614024,0
13806,0.05999999999999999,4,aa,junior-subordinated,13806,0
2512,0.045,3,bb,senior-subordinated,2512,0
1113,0.04,2,a,junior-subordinated,1113,0
238183,0.04,2,bbb,junior-subordinated,238183,0
1202738,0.05999999999999999,3,cc,subordinated,1202738,0
1666,0.045,4,bb,junior-subordinated,1666,0
27438,0.05999999999999999,5,bbb,subordinated,27438,0
2658,0.05499999999999999,2,b,senior-secured,2658,0
60210,0.05499999999999999,2,a,junior-subordinated,60210,0
4056,0.05999999999999999,4,aa,senior-unsecured,4056,0
65793,0.05999999999999999,5,bb,senior-subordinated,65793,0
47491.724609375,0.045,2,c,junior-subordinated,47491.724609375,0
2344604,0.05999999999999999,3,a,junior-subordinated,2344604,0
26667.009521484375,0.04,2,aaa,senior-unsecured,26667.009521484375,0
458752.0,0.05999999999999999,2,ccc,junior-subordinated,458752.0,0
70900,0.049999999999999996,2,ccc,junior-subordinated,70900,0
22106000,0.05999999999999999,5,bb,junior-subordinated,22106000,0
5908,0.05999999999999999,2,aa,senior-subordinated,5908,0
41762,0.04,4,aa,senior-unsecured,41762,0
2856,0.04,4,a,junior-subordinated,2856,0
1.5377488E7,0.04,4,aa,senior-secured,1.5377488E7,0
10888900,0.049999999999999996,4,bbb,junior-subordinated,10888900,0
10811652,0.05999999999999999,4,cc,senior-subordinated,10811652,0
7680.0,0.045,4,aaa,senior-secured,7680.0,0
1341946,0.045,5,c,subordinated,1341946,0
513289,0.05999999999999999,4,c,senior-secured,513289,0
3417401,0.05499999999999999,5,bbb,senior-subordinated,3417401,0
1257,0.049999999999999996,2,b,senior-subordinated,1257,0
879899,0.04,2,aaa,senior-unsecured,879899,0
21430,0.05499999999999999,3,a,senior-subordinated,21430,0
7987,0.049999999999999996,3,bbb,senior-unsecured,7987,0
912593.2424621582,0.05999999999999999,5,cc,junior-subordinated,912593.2424621582,0
5870,0.05999999999999999,4,bb,senior-secured,5870,0
73426,0.045,4,aa,senior-subordinated,73426,0
3909601,0.05499999999999999,3,a,subordinated,3909601,0
218229,0.049999999999999996,2,cc,subordinated,218229,0
973,0.049999999999999996,4,aa,senior-subordinated,973,0
6.2302624E8,0.04,4,bbb,subordinated,6.2302624E8,0
36871241,0.05499999999999999,3,ccc,subordinated,36871241,0
9892,0.05499999999999999,5,bbb,subordinated,9892,0
9800389,0.05499999999999999,2,b,senior-unsecured,9800389,0
13044995,0.05499999999999999,5,aaa,senior-unsecured,13044995,0
892232,0.04,4,aa,junior-subordinated,892232,0
14355,0.05499999999999999,4,cc,senior-secured,14355,0
689950925,0.05999999999999999,5,bbb,senior-secured,689950925,0
801,0.045,5,aa,subordinated,801,0
1632696,0.05999999999999999,3,bbb,junior-subordinated,1632696,0
275657.6677412158,0.05499999999999999,2,aa,senior-secured,275657.6677412158,0
2834424,0.05499999999999999,2,a,senior-unsecured,2834424,0
1996,0.04,5,bbb,senior-unsecured,1996,0
22207,0.05499999999999999,2,aaa,senior-secured,22207,0
765017,0.04,2,aaa,senior-secured,765017,0
835,0.04,2,bb,junior-subordinated,835,0
26006604,0.05999999999999999,2,ccc,senior-secured,26006604,0
847,0.045,2,cc,senior-secured,847,0
2996,0.05499999999999999,2,b,senior-subordinated,2996,0
7623955,0.05499999999999999,2,b,senior-subordinated,7623955,0
102869,0.05499999999999999,5,ccc,subordinated,102869,0
107857,0.05999999999999999,4,bb,senior-secured,107857,0
146645054,0.045,5,b,senior-unsecured,146645054,0
372419212,0.045,3,bb,senior-unsecured,372419212,0
247531,0.04,2,c,senior-subordinated,247531,0
26358956,0.049999999999999996,5,aaa,senior-unsecured,26358956,0
30940621,0.049999999999999996,3,c,senior-subordinated,30940621,0
226235,0.045,5,bb,subordinated,226235,0
151200,0.05999999999999999,5,ccc,subordinated,151200,0
5407,0.049999999999999996,2,bbb,senior-subordinated,5407,0
53193,0.045,5,bb,senior-secured,53193,0
2555,0.04,4,ccc,junior-subordinated,2555,0
77807254,0.05999999999999999,4,c,senior-unsecured,77807254,0
22284474,0.05999999999999999,5,aa,subordinated,22284474,0
223852862,0.05499999999999999,5,aaa,subordinated,223852862,0
58045,0.04,2,aaa,senior-unsecured,58045,0
3174,0.045,3,cc,senior-secured,3174,0
14197,0.05499999999999999,4,a,senior-secured,14197,0
14385,0.049999999999999996,4,cc,senior-unsecured,14385,0
32071,0.045,3,bbb,senior-secured,32071,0
24829,0.045,3,aa,senior-subordinated,24829,0
4270,0.049999999999999996,2,bb,senior-unsecured,4270,0
815547,0.04,5,aa,senior-unsecured,815547,0
59396,0.04,4,b,junior-subordinated,59396,0
15799,0.045,2,aaa,senior-unsecured,15799,0
207739,0.049999999999999996,2,aa,junior-subordinated,207739,0
227553,0.05499999999999999,5,ccc,junior-subordinated,227553,0
17382,0.049999999999999996,3,aa,junior-subordinated,17382,0
14400,0.05499999999999999,2,bb,senior-secured,14400,0
13325,0.05999999999999999,4,cc,senior-unsecured,13325,0
31954,0.04,3,aa,senior-secured,31954,0
2540,0.04,3,bb,senior-secured,2540,0
162784,0.04,2,b,senior-secured,162784,0
31501,0.05499999999999999,3,bbb,senior-unsecured,31501,0
123399,0.045,2,c,senior-subordinated,123399,0
11346,0.05999999999999999,2,ccc,senior-secured,11346,0
394916,0.05499999999999999,5,bbb,senior-unsecured,394916,0
328161,0.04,2,b,subordinated,328161,0
42683,0.04,4,bbb,junior-subordinated,42683,0
2637,0.05999999999999999,5,bb,subordinated,2637,0
49204,0.05499999999999999,2,aa,senior-subordinated,49204,0
5203,0.05499999999999999,4,ccc,subordinated,5203,0
667321472,0.049999999999999996,4,bbb,senior-subordinated,667321472,0
24935,0.049999999999999996,3,cc,senior-unsecured,24935,0
53783496,0.049999999999999996,2,bbb,senior-secured,53783496,0
870,0.05499999999999999,5,c,junior-subordinated,870,0
30243,0.049999999999999996,2,a,subordinated,30243,0
203604,0.04,2,ccc,senior-secured,203604,0
146547,0.04,2,a,subordinated,146547,0
125046891,0.05499999999999999,2,aa,senior-unsecured,125046891,0
200666.32025146484,0.04,3,aa,subordinated,200666.32025146484,0
828221822,0.04,2,a,senior-subordinated,828221822,0
12372.0,0.05499999999999999,5,bb,senior-subordinated,12372.0,0
2049928,0.05999999999999999,5,bbb,junior-subordinated,2049928,0
13441.31276153028,0.04,4,bb,senior-secured,13441.31276153028,0
105787341,0.05499999999999999,3,aa,senior-secured,105787341,0
106016500,0.049999999999999996,5,cc,senior-unsecured,106016500,0
2916.2392578125,0.05999999999999999,5,ccc,subordinated,2916.2392578125,0
2.68959744E8,0.04,3,a,subordinated,2.68959744E8,0
1552135,0.04,4,bb,senior-unsecured,1552135,0
1204973,0.04,4,bb,senior-subordinated,1204973,0
536307392,0.05499999999999999,2,bbb,junior-subordinated,536307392,0
21418,0.049999999999999996,3,bbb,senior-unsecured,21418,0
4151282,0.04,5,a,subordinated,4151282,0
644,0.049999999999999996,5,b,senior-subordinated,644,0
48734.92490583658,0.04,2,cc,junior-subordinated,48734.92490583658,0
1247824.8323822021,0.045,5,b,subordinated,1247824.8323822021,0
834509769,0.049999999999999996,5,aaa,senior-secured,834509769,0
4502751,0.04,2,b,senior-subordinated,4502751,0
11458,0.045,4,c,senior-unsecured,11458,0
3185,0.05499999999999999,2,bbb,senior-secured,3185,0
6371303,0.045,4,aaa,senior-subordinated,6371303,0
3734,0.049999999999999996,3,ccc,senior-secured,3734,0
132148199,0.05999999999999999,4,a,senior-subordinated,132148199,0
560640.0,0.045,5,aa,junior-subordinated,560640.0,0
4035,0.045,5,aaa,senior-secured,4035,0
368313,0.045,4,ccc,senior-secured,368313,0
399151402,0.045,2,b,senior-subordinated,399151402,0
64182,0.045,5,ccc,senior-subordinated,64182,0
128549185,0.049999999999999996,4,bb,senior-unsecured,128549185,0
757713,0.045,4,aaa,senior-unsecured,757713,0
503,0.049999999999999996,3,cc,senior-secured,503,0
4991,0.05499999999999999,4,aa,senior-subordinated,4991,0
1764,0.05999999999999999,3,aa,senior-secured,1764,0
37678150,0.049999999999999996,2,c,subordinated,37678150,0
520763,0.049999999999999996,5,cc,senior-secured,520763,0
493084998,0.05499999999999999,4,ccc,junior-subordinated,493084998,0
523663187,0.049999999999999996,4,aaa,senior-secured,523663187,0
14424,0.049999999999999996,3,bbb,senior-unsecured,14424,0
12299508,0.049999999999999996,2,bbb,senior-subordinated,12299508,0
16779025,0.04,5,ccc,senior-secured,16779025,0
102631,0.045,5,bb,senior-subordinated,102631,0
14799630,0.05499999999999999,3,cc,senior-secured,14799630,0
35241947,0.045,4,cc,senior-subordinated,35241947,0
150654,0.05499999999999999,4,cc,junior-subordinated,150654,0
2278341,0.05999999999999999,2,c,junior-subordinated,2278341,0
802080568,0.045,3,bb,senior-unsecured,802080568,0
7953,0.05499999999999999,3,cc,junior-subordinated,7953,0
864727987,0.05499999999999999,3,bbb,junior-subordinated,864727987,0
15263,0.049999999999999996,2,b,senior-unsecured,15263,0
51177424,0.045,2,bb,junior-subordinated,51177424,0
4960599,0.05999999999999999,4,c,senior-secured,4960599,0
2987,0.045,2,aaa,senior-secured,2987,0
2538130,0.05499999999999999,2,a,senior-unsecured,2538130,0
4059933,0.049999999999999996,4,bb,senior-secured,4059933,0
896,0.045,2,ccc,senior-unsecured,896,0
99794,0.05499999999999999,4,aaa,junior-subordinated,99794,0
567156,0.05999999999999999,5,cc,junior-subordinated,567156,0
2441,0.049999999999999996,3,ccc,senior-subordinated,2441,0
7612,0.05999999999999999,4,a,senior-subordinated,7612,0
105752,0.05499999999999999,2,bb,junior-subordinated,105752,0
1821,0.05499999999999999,5,a,junior-subordinated,1821,0
664,0.04,3,aaa,senior-subordinated,664,0
40255,0.045,4,a,senior-unsecured,40255,0
3600,0.04,4,ccc,junior-subordinated,3600,0
2261,0.049999999999999996,2,ccc,junior-subordinated,2261,0
892,0.049999999999999996,2,bbb,subordinated,892,0
7247,0.049999999999999996,4,cc,senior-subordinated,7247,0
12266,0.05999999999999999,2,ccc,senior-unsecured,12266,0
1702,0.05999999999999999,2,aa,senior-unsecured,1702,0
2827,0.045,3,aa,senior-secured,2827,0
5947,0.045,5,bb,junior-subordinated,5947,0
105281,0.049999999999999996,5,ccc,subordinated,105281,0
2918,0.05999999999999999,5,bbb,senior-subordinated,2918,0
109006,0.04,2,aa,senior-secured,109006,0
655,0.045,5,b,senior-unsecured,655,0
1130,0.04,3,aa,senior-unsecured,1130,0
44612740,0.045,2,aa,subordinated,44612740,0
1349,0.049999999999999996,4,a,subordinated,1349,0
5033769,0.05499999999999999,5,aaa,junior-subordinated,5033769,0
3803,0.04,4,bbb,subordinated,3803,0
374376,0.045,5,aa,senior-unsecured,374376,0
11426750,0.045,4,cc,senior-secured,11426750,0
970929,0.045,3,c,senior-unsecured,970929,0
269351,0.04,5,a,subordinated,269351,0
6820623,0.05499999999999999,2,b,senior-unsecured,6820623,0
1014427,0.05499999999999999,2,aaa,senior-unsecured,1014427,0
142858575,0.049999999999999996,5,aaa,senior-secured,142858575,0
719245,0.049999999999999996,3,aa,subordinated,719245,0
829,0.05499999999999999,2,aa,senior-subordinated,829,0
807342661,0.05999999999999999,3,ccc,senior-subordinated,807342661,0
66257,0.045,4,bbb,senior-secured,66257,0
807951947,0.045,5,a,senior-unsecured,807951947,0
893155,0.045,4,a,senior-unsecured,893155,0
2283,0.05999999999999999,2,c,senior-secured,2283,0
7121.75,0.05999999999999999,2,aa,junior-subordinated,7121.75,0
3.083090927105713E7,0.045,4,a,senior-secured,3.083090927105713E7,0
1.6121856E7,0.04,5,cc,senior-unsecured,1.6121856E7,0
2.064234925E7,0.04,4,c,senior-subordinated,2.064234925E7,0
1021.375,0.05499999999999999,5,bbb,subordinated,1021.375,0
5196,0.045,2,aa,senior-secured,5196,0
6898650,0.05499999999999999,4,b,subordinated,6898650,0
4568263,0.04,4,bbb,senior-unsecured,4568263,0
2837.60055282712,0.05499999999999999,4,bb,senior-subordinated,2837.60055282712,0
156540,0.049999999999999996,4,ccc,subordinated,156540,0
500242,0.05499999999999999,5,a,junior-subordinated,500242,0
95482,0.05999999999999999,4,a,senior-secured,95482,0
3931,0.045,2,c,subordinated,3931,0
2.52302336E8,0.049999999999999996,3,a,senior-secured,2.52302336E8,0
3694592.0,0.04,4,b,senior-unsecured,3694592.0,0
50858296,0.05999999999999999,2,aa,junior-subordinated,50858296,0
881948,0.049999999999999996,2,aaa,senior-subordinated,881948,0
370787683,0.04,4,ccc,senior-subordinated,370787683,0
12416.0,0.04,2,bbb,senior-unsecured,12416.0,0
2808,0.045,5,cc,senior-secured,2808,0
93398.8705392927,0.04,2,c,senior-subordinated,93398.8705392927,0
44932793,0.05499999999999999,5,aaa,subordinated,44932793,0
1640907,0.05499999999999999,4,bb,senior-unsecured,1640907,0
1536.0,0.05499999999999999,5,c,junior-subordinated,1536.0,0
168031649,0.049999999999999996,3,bb,subordinated,168031649,0
526123922,0.045,3,aa,senior-subordinated,526123922,0
2753962,0.04,3,bb,subordinated,2753962,0
11865811,0.05999999999999999,3,ccc,senior-subordinated,11865811,0
124271,0.04,5,bb,subordinated,124271,0
36088366,0.049999999999999996,3,cc,senior-subordinated,36088366,0
17194,0.04,4,c,senior-secured,17194,0
22137,0.05499999999999999,2,bb,subordinated,22137,0
921,0.05999999999999999,5,bbb,senior-secured,921,0
68827,0.04,3,bb,senior-secured,68827,0
19446899,0.05999999999999999,4,aaa,subordinated,19446899,0
264159047,0.05499999999999999,5,b,junior-subordinated,264159047,0
70364850,0.05999999999999999,4,ccc,senior-secured,70364850,0
17055048,0.045,5,aaa,junior-subordinated,17055048,0
21111,0.05499999999999999,3,b,subordinated,21111,0
14755,0.05499999999999999,4,aa,subordinated,14755,0
18896002,0.049999999999999996,5,c,junior-subordinated,18896002,0
40445,0.045,3,c,senior-unsecured,40445,0
1272175.83984375,0.05499999999999999,3,aa,senior-subordinated,1272175.83984375,0
1084132,0.05999999999999999,5,bb,senior-unsecured,1084132,0
44157,0.04,5,ccc,senior-secured,44157,0
21725188,0.05499999999999999,5,aaa,senior-secured,21725188,0
117988,0.05499999999999999,5,bb,senior-subordinated,117988,0
306821,0.049999999999999996,2,a,senior-unsecured,306821,0
139536,0.05999999999999999,2,aaa,senior-unsecured,139536,0
425313,0.04,3,cc,senior-secured,425313,0
173663669,0.045,5,ccc,junior-subordinated,173663669,0
2611,0.05999999999999999,4,b,junior-subordinated,2611,0
219230,0.049999999999999996,5,aa,senior-subordinated,219230,0
65616389,0.045,5,b,subordinated,65616389,0
1637507,0.045,4,cc,senior-secured,1637507,0
121921015,0.04,4,a,senior-unsecured,121921015,0
30746,0.045,3,b,subordinated,30746,0
581,0.045,3,aa,junior-subordinated,581,0
5728,0.05999999999999999,5,cc,senior-secured,5728,0
1635,0.049999999999999996,3,ccc,senior-secured,1635,0
37086,0.045,3,bb,senior-secured,37086,0
53442,0.05499999999999999,4,aa,senior-unsecured,53442,0
21024,0.045,3,bb,junior-subordinated,21024,0
102158,0.04,3,cc,subordinated,102158,0
588,0.05499999999999999,3,a,subordinated,588,0
2578,0.05499999999999999,2,aaa,junior-subordinated,2578,0
4082,0.05499999999999999,2,a,junior-subordinated,4082,0
594,0.05999999999999999,4,aa,senior-subordinated,594,0
15188,0.05499999999999999,4,ccc,senior-subordinated,15188,0
381439,0.049999999999999996,5,aaa,subordinated,381439,0
3202,0.045,5,cc,senior-subordinated,3202,0
81564,0.05999999999999999,4,a,junior-subordinated,81564,0
221084,0.049999999999999996,3,bbb,senior-unsecured,221084,0
1019,0.05999999999999999,4,b,senior-unsecured,1019,0
15793,0.05499999999999999,2,bbb,junior-subordinated,15793,0
130908,0.04,5,aaa,junior-subordinated,130908,0
2269,0.04,4,ccc,senior-subordinated,2269,0
6624397,0.045,2,b,subordinated,6624397,0
26477,0.05499999999999999,4,bbb,senior-secured,26477,0
187143,0.045,4,cc,senior-subordinated,187143,0
958,0.04,2,bb,senior-unsecured,958,0
12320,0.049999999999999996,4,ccc,subordinated,12320,0
26992780,0.045,5,b,senior-unsecured,26992780,0
1943.34375,0.045,4,a,senior-unsecured,1943.34375,0
1777877,0.05999999999999999,3,b,senior-unsecured,1777877,0
1988331,0.049999999999999996,3,bb,senior-unsecured,1988331,0
30720.0,0.04,5,a,subordinated,30720.0,0
190095,0.045,4,bb,subordinated,190095,0
1019053,0.05499999999999999,2,b,junior-subordinated,1019053,0
13951,0.05999999999999999,3,bb,junior-subordinated,13951,0
1218.125,0.05499999999999999,5,ccc,subordinated,1218.125,0
60788905,0.045,5,bb,subordinated,60788905,0
977,0.05499999999999999,2,bb,senior-secured,977,0
416042863,0.04,2,b,subordinated,416042863,0
503,0.05999999999999999,5,bbb,senior-unsecured,503,0
47577,0.05999999999999999,4,b,senior-subordinated,47577,0
81154,0.04,5,bbb,subordinated,81154,0
2122.2477166689932,0.049999999999999996,4,bbb,senior-secured,2122.2477166689932,0
54688.0,0.04,4,b,senior-subordinated,54688.0,0
38259.5124984039,0.05999999999999999,4,c,senior-unsecured,38259.5124984039,0
388566,0.05499999999999999,5,aa,junior-subordinated,388566,0
14946,0.05999999999999999,4,ccc,senior-subordinated,14946,0
953021,0.05499999999999999,5,aaa,senior-unsecured,953021,0
1865,0.04,3,bb,junior-subordinated,1865,0
202801709,0.05499999999999999,4,a,senior-subordinated,202801709,0
139035986,0.05999999999999999,4,b,junior-subordinated,139035986,0
2172.206868766498,0.05499999999999999,5,aa,senior-secured,2172.206868766498,0
13307045,0.045,5,ccc,senior-subordinated,13307045,0
4199,0.04,4,a,senior-subordinated,4199,0
679,0.049999999999999996,2,bbb,subordinated,679,0
28546,0.045,4,c,senior-subordinated,28546,0
17700,0.045,3,c,senior-subordinated,17700,0
13507433,0.045,3,cc,senior-subordinated,13507433,0
8080418,0.05999999999999999,5,aa,senior-secured,8080418,0
6339431,0.049999999999999996,5,ccc,senior-secured,6339431,0
19239199,0.04,2,a,junior-subordinated,19239199,0
123979969,0.045,3,ccc,senior-subordinated,123979969,0
4384,0.05499999999999999,3,aa,senior-unsecured,4384,0
180680127,0.05999999999999999,5,a,senior-subordinated,180680127,0
25697,0.04,5,b,senior-subordinated,25697,0
236946,0.05999999999999999,4,a,senior-secured,236946,0
1922134,0.05499999999999999,2,aa,senior-unsecured,1922134,0
1996351,0.05999999999999999,5,aa,senior-unsecured,1996351,0
1489,0.045,3,aa,junior-subordinated,1489,0
3607,0.045,5,aaa,senior-unsecured,3607,0
244393531,0.05499999999999999,5,bb,senior-secured,244393531,0
169904241,0.05499999999999999,3,c,junior-subordinated,169904241,0
9605000,0.04,4,a,senior-unsecured,9605000,0
1000,0.045,3,a,senior-secured,1000,0
188396,0.05499999999999999,5,a,senior-secured,188396,0
713500517,0.045,2,aaa,junior-subordinated,713500517,0
7.68612632E8,0.05999999999999999,5,bbb,subordinated,7.68612632E8,0
363575185,0.05999999999999999,3,c,senior-subordinated,363575185,0
20101385,0.05999999999999999,5,bbb,senior-secured,20101385,0
1748,0.04,2,ccc,subordinated,1748,0
13616,0.049999999999999996,3,b,subordinated,13616,0
27988,0.049999999999999996,3,a,subordinated,27988,0
2528894,0.04,3,bb,junior-subordinated,2528894,0
950834244,0.04,2,c,senior-secured,950834244,0
2926,0.04,4,ccc,senior-subordinated,2926,0
17803,0.04,5,a,senior-secured,17803,0
964233,0.04,3,a,senior-subordinated,964233,0
803448,0.045,2,aaa,senior-secured,803448,0
1474,0.05499999999999999,5,aaa,senior-secured,1474,0
5341,0.05499999999999999,3,a,senior-secured,5341,0
486674647,0.05999999999999999,5,cc,subordinated,486674647,0
4592,0.05999999999999999,2,ccc,senior-subordinated,4592,0
65684519,0.05499999999999999,2,aa,senior-secured,65684519,0
1967,0.049999999999999996,4,aa,senior-subordinated,1967,0
3733853,0.05999999999999999,2,b,junior-subordinated,3733853,0
17229,0.05499999999999999,2,a,senior-subordinated,17229,0
57268,0.05499999999999999,5,bbb,senior-subordinated,57268,0
64910259,0.04,5,a,junior-subordinated,64910259,0
75188503,0.045,3,c,senior-unsecured,75188503,0
