,AAA,AA,A,BBB,BB,B,CCC,Default
AAA,0.9081,0.0833,0.0068,0.0006,0.0012,0.0,0.0,0.0
AA,0.007,0.9065,0.0779,0.0064,0.0006,0.0014,0.0002,0.0
A,0.0009,0.0227,0.9105,0.0552,0.0074,0.0026,0.0001,0.0006
BBB,0.0002,0.0033,0.0595,0.8693,0.053,0.0117,0.0012,0.0018
BB,0.0003,0.0014,0.0067,0.0773,0.8053,0.0884,0.01,0.0106
B,0.0,0.0011,0.0024,0.0043,0.0648,0.8346,0.0407,0.052
CCC,0.0022,0.0,0.0022,0.013,0.0238,0.1124,0.6486,0.1979
Default,0.0,0.0,0.0,0.0,0.0,0.0,0.0,1.0
